%YAML 1.1
%TAG !u! tag:unity3d.com,2011:
--- !u!1001 &8278634242145236340
PrefabInstance:
  m_ObjectHideFlags: 0
  serializedVersion: 2
  m_Modification:
    serializedVersion: 3
    m_TransformParent: {fileID: 0}
    m_Modifications:
    - target: {fileID: 1032603930250277120, guid: 4cfc7d80649674e7c865e62feeac45f0,
        type: 3}
      propertyPath: forUnitId
      value: 2
      objectReference: {fileID: 0}
    - target: {fileID: 2792765767071439659, guid: 4cfc7d80649674e7c865e62feeac45f0,
        type: 3}
      propertyPath: m_Name
      value: Unit_Ram
      objectReference: {fileID: 0}
    - target: {fileID: 5769200313668528249, guid: 4cfc7d80649674e7c865e62feeac45f0,
        type: 3}
      propertyPath: m_RootOrder
      value: 2
      objectReference: {fileID: 0}
    - target: {fileID: 5769200313668528249, guid: 4cfc7d80649674e7c865e62feeac45f0,
        type: 3}
      propertyPath: m_LocalPosition.x
      value: 0
      objectReference: {fileID: 0}
    - target: {fileID: 5769200313668528249, guid: 4cfc7d80649674e7c865e62feeac45f0,
        type: 3}
      propertyPath: m_LocalPosition.y
      value: 0
      objectReference: {fileID: 0}
    - target: {fileID: 5769200313668528249, guid: 4cfc7d80649674e7c865e62feeac45f0,
        type: 3}
      propertyPath: m_LocalPosition.z
      value: 0
      objectReference: {fileID: 0}
    - target: {fileID: 5769200313668528249, guid: 4cfc7d80649674e7c865e62feeac45f0,
        type: 3}
      propertyPath: m_LocalRotation.w
      value: 1
      objectReference: {fileID: 0}
    - target: {fileID: 5769200313668528249, guid: 4cfc7d80649674e7c865e62feeac45f0,
        type: 3}
      propertyPath: m_LocalRotation.x
      value: 0
      objectReference: {fileID: 0}
    - target: {fileID: 5769200313668528249, guid: 4cfc7d80649674e7c865e62feeac45f0,
        type: 3}
      propertyPath: m_LocalRotation.y
      value: 0
      objectReference: {fileID: 0}
    - target: {fileID: 5769200313668528249, guid: 4cfc7d80649674e7c865e62feeac45f0,
        type: 3}
      propertyPath: m_LocalRotation.z
      value: 0
      objectReference: {fileID: 0}
    - target: {fileID: 5769200313668528249, guid: 4cfc7d80649674e7c865e62feeac45f0,
        type: 3}
      propertyPath: m_LocalEulerAnglesHint.x
      value: 0
      objectReference: {fileID: 0}
    - target: {fileID: 5769200313668528249, guid: 4cfc7d80649674e7c865e62feeac45f0,
        type: 3}
      propertyPath: m_LocalEulerAnglesHint.y
      value: 0
      objectReference: {fileID: 0}
    - target: {fileID: 5769200313668528249, guid: 4cfc7d80649674e7c865e62feeac45f0,
        type: 3}
      propertyPath: m_LocalEulerAnglesHint.z
      value: 0
      objectReference: {fileID: 0}
    m_RemovedComponents: []
    m_RemovedGameObjects: []
    m_AddedGameObjects: []
    m_AddedComponents: []
  m_SourcePrefab: {fileID: 100100000, guid: 4cfc7d80649674e7c865e62feeac45f0, type: 3}
